%YAML 1.1
%TAG !u! tag:unity3d.com,2011:
--- !u!114 &11400000
MonoBehaviour:
  m_ObjectHideFlags: 0
  m_CorrespondingSourceObject: {fileID: 0}
  m_PrefabInstance: {fileID: 0}
  m_PrefabAsset: {fileID: 0}
  m_GameObject: {fileID: 0}
  m_Enabled: 1
  m_EditorHideFlags: 0
  m_Script: {fileID: 11500000, guid: 4ab2228651b4e8f4caf174ab1891795c, type: 3}
  m_Name: TestQuest
  m_EditorClassIdentifier: 
  questTitle: Coin Collecting
  questGiver: Stasiek
  mainQuest: 0
  conditions: []
  chainName: Lancuch
  numberInChain: 1
  stages:
  - objectives:
    - objectiveType: 2
      completed: 0
      target: Coin
      target2: 
      amount: 1
    description: Collect a coin
  rewards: []
  returnTo: Stasiek
  takingQuestLines:
  - displayMode: 0
    text: Take a coin
    timeBetweenParts: 0.1
    decisions: []
    soundToMake: 0
    author: Stasiek
  doingQuestLines:
  - displayMode: 0
    text: Still didnt take?
    timeBetweenParts: 0.1
    decisions: []
    soundToMake: 0
    author: Stasiek
  doneQuestLines:
  - displayMode: 0
    text: GJ
    timeBetweenParts: 0.4
    decisions: []
    soundToMake: 0
    author: Stasiek
